{
    "KPlugin": {
        "Authors": [
            {
                "Email": "ematirov@gmail.com",
                "Name": "Mikhail Ivchenko",
                "Name[ar]": "Mikhail Ivchenko",
                "Name[az]": "Mikhail Ivchenko",
                "Name[bg]": "Mikhail Ivchenko",
                "Name[ca@valencia]": "Mikhail Ivchenko",
                "Name[ca]": "Mikhail Ivchenko",
                "Name[cs]": "Mikhail Ivchenko",
                "Name[de]": "Mikhail Ivchenko",
                "Name[en_GB]": "Mikhail Ivchenko",
                "Name[es]": "Mikhail Ivchenko",
                "Name[eu]": "Mikhail Ivchenko",
                "Name[fi]": "Mikhail Ivchenko",
                "Name[fr]": "Mikhail Ivchenko",
                "Name[ia]": "Mikhail Ivchenko",
                "Name[id]": "Mikhail Ivchenko",
                "Name[is]": "Mikhail Ivchenko",
                "Name[it]": "Mikhail Ivchenko",
                "Name[ja]": "Mikhail Ivchenko",
                "Name[ka]": "Mikhail Ivchenko",
                "Name[ko]": "Mikhail Ivchenko",
                "Name[lt]": "Mikhail Ivchenko",
                "Name[nl]": "Mikhail Ivchenko",
                "Name[nn]": "Mikhail Ivchenko",
                "Name[pl]": "Mikhail Ivchenko",
                "Name[pt]": "Mikhail Ivchenko",
                "Name[pt_BR]": "Mikhail Ivchenko",
                "Name[ro]": "Mikhail Ivchenko",
                "Name[ru]": "Mikhail Ivchenko",
                "Name[sk]": "Mikhail Ivchenko",
                "Name[sl]": "Mikhail Ivchenko",
                "Name[sv]": "Mikhail Ivchenko",
                "Name[tr]": "Mikhail Ivchenko",
                "Name[uk]": "Михайло Івченко",
                "Name[vi]": "Mikhail Ivchenko",
                "Name[x-test]": "xxMikhail Ivchenkoxx",
                "Name[zh_CN]": "Mikhail Ivchenko",
                "Name[zh_TW]": "Mikhail Ivchenko"
            }
        ],
        "Category": "Online Services",
        "Description": "Add a webpage on your desktop.",
        "Description[ar]": "أضف صفحة ويب لسطح مكتبك",
        "Description[az]": "Veb səhifəni İş Masanızda göstərir",
        "Description[bg]": "Добавяне на уеб страница на работния плот.",
        "Description[ca@valencia]": "Afig una pàgina web a l'escriptori.",
        "Description[ca]": "Afegeix una pàgina web a l'escriptori.",
        "Description[de]": "Eine Webseite zu Ihrer Arbeitsfläche hinzufügen.",
        "Description[en_GB]": "Add a webpage on your desktop.",
        "Description[es]": "Añadir una página web al escritorio.",
        "Description[eu]": "Gehitu web-orri bat zure mahaigainean.",
        "Description[fi]": "Lisää työpöydälle verkkosivun.",
        "Description[fr]": "Ajouter une page Internet à votre bureau.",
        "Description[ia]": "Adde un pagina web sur tu scriptorio.",
        "Description[id]": "Tambahkan halaman web ke desktopmu.",
        "Description[is]": "Bættu vefsíðu á skjáborðið þitt.",
        "Description[it]": "Aggiungi una pagina web al tuo desktop.",
        "Description[ja]": "ウェブページをデスクトップに追加します。",
        "Description[ko]": "바탕 화면에 웹 페이지를 추가합니다.",
        "Description[lt]": "Internetinis puslapis darbalaukyje.",
        "Description[nl]": "Een webpagina toevoegen aan uw bureaublad.",
        "Description[nn]": "Legg ei nettside på skrivebordet",
        "Description[pl]": "Dodaje stronę internetową na pulpit.",
        "Description[pt]": "Adicionar uma página Web ao seu ecrã.",
        "Description[pt_BR]": "Adiciona um site na sua área de trabalho.",
        "Description[ro]": "Adaugă o pagină web pe birou.",
        "Description[ru]": "Просмотр веб-страницы на рабочем столе",
        "Description[sk]": "Pridajte webstránku na vašu pracovnú plochu",
        "Description[sl]": "Dodaj spletno stran na vaše namizje.",
        "Description[sv]": "Lägg till en webbsida på skrivbordet.",
        "Description[tr]": "Masaüstünüze bir web sayfası ekleyin",
        "Description[uk]": "Додати сторінку інтернету на вашу стільницю.",
        "Description[vi]": "Thêm một trang web vào bàn làm việc",
        "Description[x-test]": "xxAdd a webpage on your desktop.xx",
        "Description[zh_CN]": "添加网页到您的桌面",
        "Description[zh_TW]": "加一個網站在您的桌面上。",
        "Icon": "applications-internet",
        "Id": "org.kde.plasma.webbrowser",
        "License": "GPL-2.0+",
        "Name": "Web browser",
        "Name[ar]": "متصفّح الوبّ",
        "Name[az]": "Veb Bələdçi",
        "Name[bg]": "Уеб браузър",
        "Name[ca@valencia]": "Navegador web",
        "Name[ca]": "Navegador web",
        "Name[cs]": "Webový prohlížeč",
        "Name[de]": "Webbrowser",
        "Name[en_GB]": "Web browser",
        "Name[es]": "Navegador web",
        "Name[eu]": "Web-arakatzailea",
        "Name[fi]": "Verkkoselain",
        "Name[fr]": "Navigateur Internet",
        "Name[ia]": "Navigator Web",
        "Name[id]": "Browser Web",
        "Name[is]": "Vafri",
        "Name[it]": "Browser web",
        "Name[ja]": "ウェブブラウザ",
        "Name[ka]": "ვებ-ბრაუზერი",
        "Name[ko]": "웹 브라우저",
        "Name[lt]": "Saityno naršyklė",
        "Name[nl]": "Webbrowser",
        "Name[nn]": "Nett­lesar",
        "Name[pl]": "Przeglądarka sieciowa",
        "Name[pt]": "Navegador Web",
        "Name[pt_BR]": "Navegador",
        "Name[ro]": "Navigator de Internet",
        "Name[ru]": "Веб-браузер",
        "Name[sk]": "Webový prehliadač",
        "Name[sl]": "Spletni brskalnik",
        "Name[sv]": "Webbläsare",
        "Name[tr]": "Web Tarayıcısı",
        "Name[uk]": "Переглядач інтернету",
        "Name[vi]": "Trình duyệt web",
        "Name[x-test]": "xxWeb browserxx",
        "Name[zh_CN]": "网页浏览器",
        "Name[zh_TW]": "網頁瀏覽器",
        "ServiceTypes": [
            "Plasma/Applet"
        ],
        "Version": "0.2.0",
        "Website": "https://kde.org/plasma-desktop"
    },
    "X-KDE-ParentApp": "",
    "X-Plasma-API": "declarativeappletscript",
    "X-Plasma-MainScript": "ui/main.qml",
    "X-Plasma-StandAloneApp": true
}
