{
    "KPlugin": {
        "Authors": [
            {
                "Email": "zrenfire@gmail.com",
                "Name": "Chris Holland",
                "Name[ar]": "Chris Holland",
                "Name[az]": "Chris Holland",
                "Name[bg]": "Chris Holland",
                "Name[ca@valencia]": "Chris Holland",
                "Name[ca]": "Chris Holland",
                "Name[en_GB]": "Chris Holland",
                "Name[es]": "Chris Holland",
                "Name[eu]": "Chris Holland",
                "Name[fi]": "Chris Holland",
                "Name[fr]": "Chris Holland",
                "Name[ia]": "Chris Holland",
                "Name[id]": "Chris Holland",
                "Name[is]": "Chris Holland",
                "Name[it]": "Chris Holland",
                "Name[ja]": "Chris Holland",
                "Name[ka]": "Chris Holland",
                "Name[ko]": "Chris Holland",
                "Name[nl]": "Chris Holland",
                "Name[nn]": "Chris Holland",
                "Name[pl]": "Chris Holland",
                "Name[pt]": "Chris Holland",
                "Name[pt_BR]": "Chris Holland",
                "Name[ro]": "Chris Holland",
                "Name[ru]": "Chris Holland",
                "Name[sl]": "Chris Holland",
                "Name[sv]": "Chris Holland",
                "Name[tr]": "Chris Holland",
                "Name[uk]": "Chris Holland",
                "Name[vi]": "Chris Holland",
                "Name[x-test]": "xxChris Hollandxx",
                "Name[zh_CN]": "Chris Holland",
                "Name[zh_TW]": "Chris Holland"
            }
        ],
        "Description": "A window switcher layout using a small grid of thumbnails",
        "Description[ar]": "مخطط مبدل نوافذ يستخدم شبكة صغيرة من المصغرات",
        "Description[az]": "Kiçik miniatürlər toru istifadə edən pəncərə dəyişdirici maketi",
        "Description[bg]": "Оформление на програмата за превключване на прозорци с използване на редица от миниатюри за представяне на прозорците",
        "Description[ca@valencia]": "Una disposició del commutador de finestres que utilitza una quadrícula xicoteta de miniatures",
        "Description[ca]": "Una disposició del commutador de finestres que utilitza una quadrícula petita de miniatures",
        "Description[en_GB]": "A window switcher layout using a small grid of thumbnails",
        "Description[es]": "Un esquema de selección de ventanas que usa una pequeña cuadrícula de miniaturas",
        "Description[eu]": "Koadro-txikien sareta txiki bat erabiltzen duen leiho-trukatzaile antolamendu bat",
        "Description[fi]": "Ikkunavaihtoasettelu, joka käyttää pientä pienoiskuvaruudukkoa",
        "Description[fr]": "Une disposition du sélecteur de fenêtres utilisant une petite grille de vignettes",
        "Description[ia]": "Un disposition de commutator de fenestra usante un parve grillia de miniaturas",
        "Description[id]": "Sebuah tataletak pengalih window yang menggunakan sebuah kisi kecil ber-thumbnail",
        "Description[it]": "Una disposizione del selettore delle finestre che utilizza una piccola griglia di miniature",
        "Description[ja]": "サムネイルの小さいグリッドを使用するウィンドウスイッチャー",
        "Description[ko]": "작은 축소판 격자를 사용하는 창 전환기 레이아웃",
        "Description[nl]": "Een indeling van de vensterwisselaar met een klein raster van miniaturen",
        "Description[nn]": "Vindaugsbytar som viser eit rutenett med miniatyrbilete",
        "Description[pl]": "Układ przełączania okien, używający małej siatki miniatur",
        "Description[pt]": "Uma disposição de mudança de janelas que mostra uma pequena grelha de miniaturas",
        "Description[pt_BR]": "Um layout do seletor de janelas que usa uma pequena grade de miniaturas",
        "Description[ro]": "Aranjament pentru comutatorul de ferestre folosind o grilă mică de pictograme",
        "Description[ru]": "Переключатель окон в виде сетки миниатюр окон",
        "Description[sl]": "Razporeditev preklopa oken, ki uporablja malo mrežo predoglednih sličic",
        "Description[sv]": "En layout för fönsterbyte som använder ett litet miniatyrbildsrutnät",
        "Description[tr]": "Küçük görsellerin bir ızgarasını gösteren pencere değiştirici düzeni",
        "Description[uk]": "Компонування засобу перемикання вікон з малою таблицею мініатюр поточного стану вікон",
        "Description[vi]": "Bố cục trình chuyển cửa sổ dùng một lưới nhỏ các hình nhỏ",
        "Description[x-test]": "xxA window switcher layout using a small grid of thumbnailsxx",
        "Description[zh_CN]": "将窗口缩略图按小型表格显示的窗口切换器布局",
        "Icon": "preferences-system-windows-switcher-thumbnail-grid",
        "Id": "thumbnail_grid",
        "License": "GPL",
        "Name": "Thumbnail Grid",
        "Name[ar]": "شبكة مصغرات",
        "Name[az]": "Miniatürlər cədvəli",
        "Name[bg]": "Решетка с миниатюри",
        "Name[ca@valencia]": "Quadrícula de miniatures",
        "Name[ca]": "Quadrícula de miniatures",
        "Name[cs]": "Mřížka náhledů",
        "Name[en_GB]": "Thumbnail Grid",
        "Name[es]": "Cuadrícula de miniaturas",
        "Name[eu]": "Koadro txikien sareta",
        "Name[fi]": "Pienoiskuvaruudukko",
        "Name[fr]": "Grille de vignettes",
        "Name[ia]": "Grillia de Miniatura",
        "Name[id]": "Kisi Thumbnail",
        "Name[is]": "Raðaðar smámyndir",
        "Name[it]": "Griglia delle miniature",
        "Name[ja]": "サムネイルグリッド",
        "Name[ko]": "축소판 격자",
        "Name[nl]": "Raster voor miniaturen",
        "Name[nn]": "Rutenett med miniatyrbilete",
        "Name[pl]": "Siatka miniatur",
        "Name[pt]": "Grelha de Miniaturas",
        "Name[pt_BR]": "Grade de miniaturas",
        "Name[ro]": "Grilă de miniaturi",
        "Name[ru]": "Сетка миниатюр",
        "Name[sl]": "Mreža predoglednih sličic",
        "Name[sv]": "Miniatyrbildsrutnät",
        "Name[tr]": "Küçük Görsel Izgarası",
        "Name[uk]": "Таблиця мініатюр",
        "Name[vi]": "Lưới hình nhỏ",
        "Name[x-test]": "xxThumbnail Gridxx",
        "Name[zh_CN]": "缩略图网格",
        "Name[zh_TW]": "縮圖格線",
        "ServiceTypes": [
            "KWin/WindowSwitcher"
        ],
        "Version": "6"
    },
    "X-Plasma-API": "declarativeappletscript",
    "X-Plasma-MainScript": "ui/main.qml"
}
