{
    "KPlugin": {
        "Authors": [
            {
                "Email": "kde@privat.broulik.de",
                "Name": "Kai Uwe Broulik",
                "Name[ar]": "Kai Uwe Broulik",
                "Name[az]": "Kai Uwe Broulik",
                "Name[bg]": "Kai Uwe Broulik",
                "Name[ca@valencia]": "Kai Uwe Broulik",
                "Name[ca]": "Kai Uwe Broulik",
                "Name[cs]": "Kai Uwe Broulik",
                "Name[de]": "Kai Uwe Broulik",
                "Name[en_GB]": "Kai Uwe Broulik",
                "Name[es]": "Kai Uwe Broulik",
                "Name[eu]": "Kai Uwe Broulik",
                "Name[fi]": "Kai Uwe Broulik",
                "Name[fr]": "Kai Uwe Broulik",
                "Name[ia]": "Kai Uwe Broulik",
                "Name[id]": "Kai Uwe Broulik",
                "Name[is]": "Kai Uwe Broulik",
                "Name[it]": "Kai Uwe Broulik",
                "Name[ja]": "Kai Uwe Broulik",
                "Name[ka]": "კაი უვე ბროულიკი",
                "Name[ko]": "Kai Uwe Broulik",
                "Name[lt]": "Kai Uwe Broulik",
                "Name[nl]": "Kai Uwe Broulik",
                "Name[nn]": "Kai Uwe Broulik",
                "Name[pl]": "Kai Uwe Broulik",
                "Name[pt]": "Kai Uwe Broulik",
                "Name[pt_BR]": "Kai Uwe Broulik",
                "Name[ro]": "Kai Uwe Broulik",
                "Name[ru]": "Kai Uwe Broulik",
                "Name[sk]": "Kai Uwe Broulik",
                "Name[sl]": "Kai Uwe Broulik",
                "Name[sv]": "Kai Uwe Broulik",
                "Name[tr]": "Kai Uwe Broulik",
                "Name[uk]": "Kai Uwe Broulik",
                "Name[vi]": "Kai Uwe Broulik",
                "Name[x-test]": "xxKai Uwe Broulikxx",
                "Name[zh_CN]": "Kai Uwe Broulik",
                "Name[zh_TW]": "Kai Uwe Broulik"
            }
        ],
        "Category": "Date and Time",
        "Description": "Time displayed in a less precise format",
        "Description[ar]": "الوقت يظهر بتنسيق أقل دقة",
        "Description[az]": "Təxmini vaxt sözlə göstərilir",
        "Description[bg]": "Показване на ориентировъчен час",
        "Description[ca@valencia]": "Mostra l'hora en un format aproximat",
        "Description[ca]": "Mostra l'hora en un format aproximat",
        "Description[cs]": "Zobrazení času v nejasném formátu",
        "Description[de]": "Zeigt die Zeit weniger genau an",
        "Description[en_GB]": "Time displayed in a less precise format",
        "Description[es]": "Hora mostrada en un formato menos preciso",
        "Description[eu]": "Ordua zehaztasun txikiagoko formatu batean bistaratua",
        "Description[fi]": "Vähemmän tarkasti esitetty kellonaika",
        "Description[fr]": "Heure affichée dans un format moins précis",
        "Description[ia]": "Tempore monstrate in un formato minus precise",
        "Description[id]": "Waktu ditampilkan dalam format yang kurang tepat",
        "Description[is]": "Birtir tímann á minna nákvæmu sniði",
        "Description[it]": "Ora mostrata in modo meno preciso",
        "Description[ja]": "時間をあいまいな形式で表示します",
        "Description[ko]": "개략적인 형태로 시간 보여주기",
        "Description[lt]": "Mažesnio tikslumo formatu rodomas laikas",
        "Description[nl]": "De tijd in iets minder nauwkeurig formaat",
        "Description[nn]": "Klokka – meir eller mindre nøyaktig",
        "Description[pl]": "Wyświetla czas w mniej precyzyjnym formacie",
        "Description[pt]": "A hora apresentada num formato menos exacto",
        "Description[pt_BR]": "Hora exibida em formato menos preciso",
        "Description[ro]": "Ora afișată într-un format mai puțin exact",
        "Description[ru]": "Время в словесной записи",
        "Description[sk]": "Čas zobrazený v menej presnom formáte",
        "Description[sl]": "Čas prikazan v manj natančnem formatu",
        "Description[sv]": "Tidvisning med ett mindre exakt format",
        "Description[tr]": "Daha az kesin bir biçimde görüntülenen zaman",
        "Description[uk]": "Час, показаний у менш точному форматі",
        "Description[vi]": "Thời gian hiển thị ở dạng ít chính xác hơn",
        "Description[x-test]": "xxTime displayed in a less precise formatxx",
        "Description[zh_CN]": "用粗略格式显示时间",
        "Description[zh_TW]": "用比較不精確的方式顯示時間",
        "Icon": "preferences-system-time",
        "Id": "org.kde.plasma.fuzzyclock",
        "License": "GPL-2.0+",
        "Name": "Fuzzy Clock",
        "Name[ar]": "ساعة تقريبية",
        "Name[az]": "Təxmini saat",
        "Name[bg]": "Ориентировъчен часовник",
        "Name[ca@valencia]": "Rellotge aproximat",
        "Name[ca]": "Rellotge aproximat",
        "Name[cs]": "Nejasné hodiny",
        "Name[de]": "Umgangssprachliche Uhr",
        "Name[en_GB]": "Fuzzy Clock",
        "Name[es]": "Reloj impreciso",
        "Name[eu]": "Ordulari lausoa",
        "Name[fi]": "Sumea kello",
        "Name[fr]": "Horloge floue",
        "Name[ia]": "Horologio confuse",
        "Name[id]": "Jam Kabur",
        "Name[is]": "Ónákvæm klukka",
        "Name[it]": "Orologio confuso",
        "Name[ja]": "あいまい時計",
        "Name[ka]": "ბუნდოვანი საათი",
        "Name[ko]": "퍼지 시계",
        "Name[lt]": "Netikslus laikrodis",
        "Name[nl]": "Vage klok",
        "Name[nn]": "Uklar klokke",
        "Name[pl]": "Rozmyty zegar",
        "Name[pt]": "Relógio Difuso",
        "Name[pt_BR]": "Relógio aproximado",
        "Name[ro]": "Ceas evaziv",
        "Name[ru]": "Неточное время",
        "Name[sk]": "Približné hodiny",
        "Name[sl]": "Fuzzy Clock",
        "Name[sv]": "Inexakt klocka",
        "Name[tr]": "Belirsiz Saat",
        "Name[uk]": "Нечіткий годинник",
        "Name[vi]": "Đồng mơ hồ",
        "Name[x-test]": "xxFuzzy Clockxx",
        "Name[zh_CN]": "粗略时钟",
        "Name[zh_TW]": "模糊時鐘",
        "ServiceTypes": [
            "Plasma/Applet"
        ],
        "Version": "1.0",
        "Website": "https://kde.org/plasma-desktop"
    },
    "X-KDE-ParentApp": "",
    "X-Plasma-API": "declarativeappletscript",
    "X-Plasma-MainScript": "ui/main.qml",
    "X-Plasma-Provides": [
        "org.kde.plasma.time",
        "org.kde.plasma.date"
    ]
}
