{
    "KPlugin": {
        "Authors": [
            {
                "Email": "stanaland@gmail.com, bettio@kde.org",
                "Name": "Henry Stanaland, Davide Bettio",
                "Name[ar]": "Henry Stanaland, Davide Bettio",
                "Name[az]": "Henry Stanaland, Davide Bettio",
                "Name[bg]": "Henry Stanaland, Davide Bettio",
                "Name[ca@valencia]": "Henry Stanaland, Davide Bettio",
                "Name[ca]": "Henry Stanaland, Davide Bettio",
                "Name[cs]": "Henry Stanaland, Davide Bettio",
                "Name[de]": "Henry Stanaland, Davide Bettio",
                "Name[en_GB]": "Henry Stanaland, Davide Bettio",
                "Name[es]": "Henry Stanaland, Davide Bettio",
                "Name[eu]": "Henry Stanaland, Davide Bettio",
                "Name[fi]": "Henry Stanaland, Davide Bettio",
                "Name[fr]": "Henry Stanaland, Davide Bettio",
                "Name[ia]": "Henry Stanaland, Davide Bettio",
                "Name[id]": "Henry Stanaland, Davide Bettio",
                "Name[is]": "Henry Stanaland, Davide Bettio",
                "Name[it]": "Henry Stanaland, Davide Bettio",
                "Name[ja]": "Henry Stanaland, Davide Bettio",
                "Name[ka]": "Henry Stanaland, Davide Bettio",
                "Name[ko]": "Henry Stanaland, Davide Bettio",
                "Name[lt]": "Henry Stanaland, Davide Bettio",
                "Name[nl]": "Henry Stanaland, Davide Bettio",
                "Name[nn]": "Henry Stanaland, Davide Bettio",
                "Name[pl]": "Henry Stanaland, Davide Bettio",
                "Name[pt]": "Henry Stanaland, Davide Bettio",
                "Name[pt_BR]": "Henry Stanaland, Davide Bettio",
                "Name[ro]": "Henry Stanaland, Davide Bettio",
                "Name[ru]": "Henry Stanaland, Davide Bettio",
                "Name[sk]": "Henry Stanaland, Davide Bettio",
                "Name[sl]": "Henry Stanaland, Davide Bettio",
                "Name[sv]": "Henry Stanaland, Davide Bettio",
                "Name[tr]": "Henry Stanaland, Davide Bettio",
                "Name[uk]": "Henry Stanaland, Davide Bettio",
                "Name[vi]": "Henry Stanaland, Davide Bettio",
                "Name[x-test]": "xxHenry Stanaland, Davide Bettioxx",
                "Name[zh_CN]": "Henry Stanaland, Davide Bettio",
                "Name[zh_TW]": "Henry Stanaland, Davide Bettio"
            }
        ],
        "Category": "Utilities",
        "Description": "Calculate simple sums",
        "Description[ar]": "احسب عمليات جمع بسيطة",
        "Description[az]": "Sadə hesablama",
        "Description[bg]": "Изчисляване на прости суми",
        "Description[ca@valencia]": "Calcula sumes senzilles",
        "Description[ca]": "Calcula sumes senzilles",
        "Description[cs]": "Jednoduché sčítání",
        "Description[de]": "Für kleine Rechenaufgaben",
        "Description[en_GB]": "Calculate simple sums",
        "Description[es]": "Calcular sumas sencillas",
        "Description[eu]": "Gehiketa errazak kalkulatzea",
        "Description[fi]": "Laske yksinkertaisia summia",
        "Description[fr]": "Calculer de simples sommes",
        "Description[ia]": "Calcula simple summas",
        "Description[id]": "Hitung penjumlahan sederhana",
        "Description[is]": "Reiknar einfaldar aðgerðir",
        "Description[it]": "Calcola semplici somme",
        "Description[ja]": "簡単な計算ができます",
        "Description[ko]": "간단한 계산기",
        "Description[lt]": "Paprasti skaičiavimai",
        "Description[nl]": "Eenvoudige berekeningen",
        "Description[nn]": "Grafisk kalkulator",
        "Description[pl]": "Oblicza proste sumy",
        "Description[pt]": "Calcular somas simples",
        "Description[pt_BR]": "Calcula funções matemáticas básicas",
        "Description[ro]": "Calculează sume simple",
        "Description[ru]": "Вычисление простых выражений",
        "Description[sk]": "Počítajte jednoduché sumy",
        "Description[sl]": "Izračunaj enostavne vsote",
        "Description[sv]": "Beräkna enkla summor",
        "Description[tr]": "Yalın toplamları hesapla",
        "Description[uk]": "Обчисліть прості суми",
        "Description[vi]": "Tính các phép tính đơn giản",
        "Description[x-test]": "xxCalculate simple sumsxx",
        "Description[zh_CN]": "简易四则运算计算器",
        "Description[zh_TW]": "做些基本計算",
        "EnabledByDefault": true,
        "Icon": "accessories-calculator",
        "Id": "org.kde.plasma.calculator",
        "License": "GPL-2.0+",
        "Name": "Calculator",
        "Name[ar]": "آلة حاسبة",
        "Name[az]": "Kalkulyator",
        "Name[bg]": "Калкулатор",
        "Name[ca@valencia]": "Calculadora",
        "Name[ca]": "Calculadora",
        "Name[cs]": "Kalkulačka",
        "Name[de]": "Rechner",
        "Name[en_GB]": "Calculator",
        "Name[es]": "Calculadora",
        "Name[eu]": "Kalkulagailua",
        "Name[fi]": "Laskin",
        "Name[fr]": "Calculatrice",
        "Name[ia]": "Calculator",
        "Name[id]": "Kalkulator",
        "Name[is]": "Reiknivél",
        "Name[it]": "Calcolatrice",
        "Name[ja]": "計算機",
        "Name[ka]": "კალკულატორი",
        "Name[ko]": "계산기",
        "Name[lt]": "Skaičiuotuvas",
        "Name[nl]": "Rekenmachine",
        "Name[nn]": "Kalkulator",
        "Name[pl]": "Kalkulator",
        "Name[pt]": "Calculadora",
        "Name[pt_BR]": "Calculadora",
        "Name[ro]": "Calculator",
        "Name[ru]": "Калькулятор",
        "Name[sk]": "Kalkulačka",
        "Name[sl]": "Kalkulator",
        "Name[sv]": "Räknare",
        "Name[tr]": "Hesap Makinesi",
        "Name[uk]": "Калькулятор",
        "Name[vi]": "Máy tính bỏ túi",
        "Name[x-test]": "xxCalculatorxx",
        "Name[zh_CN]": "计算器",
        "Name[zh_TW]": "計算機",
        "ServiceTypes": [
            "Plasma/Applet"
        ],
        "Version": "1.0",
        "Website": "https://kde.org/plasma-desktop/"
    },
    "X-Plasma-API": "declarativeappletscript",
    "X-Plasma-MainScript": "ui/calculator.qml",
    "X-Plasma-StandAloneApp": true
}
