{
    "KPlugin": {
        "Authors": [
            {
                "Email": "davidedmundsonkde.org",
                "Name": "David Edmundson",
                "Name[ar]": "David Edmundson",
                "Name[az]": "David Edmundson",
                "Name[bg]": "David Edmundson",
                "Name[ca@valencia]": "David Edmundson",
                "Name[ca]": "David Edmundson",
                "Name[cs]": "David Edmundson",
                "Name[de]": "David Edmundson",
                "Name[en_GB]": "David Edmundson",
                "Name[es]": "David Edmundson",
                "Name[eu]": "David Edmundson",
                "Name[fi]": "David Edmundson",
                "Name[fr]": "David Edmundson",
                "Name[ia]": "David Edmundson",
                "Name[id]": "David Edmundson",
                "Name[is]": "David Edmundson",
                "Name[it]": "David Edmundson",
                "Name[ja]": "David Edmundson",
                "Name[ka]": "დავიდ ედმუნდსონი",
                "Name[ko]": "David Edmundson",
                "Name[lt]": "David Edmundson",
                "Name[nl]": "David Edmundson",
                "Name[nn]": "David Edmundson",
                "Name[pl]": "David Edmundson",
                "Name[pt]": "David Edmundson",
                "Name[pt_BR]": "David Edmundson",
                "Name[ro]": "David Edmundson",
                "Name[ru]": "David Edmundson",
                "Name[sk]": "David Edmundson",
                "Name[sl]": "David Edmundson",
                "Name[sv]": "David Edmundson",
                "Name[tr]": "David Edmundson",
                "Name[uk]": "David Edmundson",
                "Name[vi]": "David Edmundson",
                "Name[x-test]": "xxDavid Edmundsonxx",
                "Name[zh_CN]": "David Edmundson",
                "Name[zh_TW]": "David Edmundson"
            }
        ],
        "Category": "Windows and Tasks",
        "Description": "Group Plasma widgets together",
        "Description[ar]": "جمع ودجات بلازما معا",
        "Description[az]": "Plasma vidjetlərini birlikdə qruplaşdırmaq",
        "Description[bg]": "Групиране на уиджетите на Plasma заедно",
        "Description[ca@valencia]": "Agrupa els ginys de Plasma",
        "Description[ca]": "Agrupa els ginys del Plasma",
        "Description[cs]": "Seskupit widgety Plasma dohromady",
        "Description[de]": "Plasma-Miniprogramme zusammen gruppieren",
        "Description[en_GB]": "Group Plasma widgets together",
        "Description[es]": "Agrupar widgets de Plasma",
        "Description[eu]": "Taldekatu Plasma trepetak elkarrekin",
        "Description[fi]": "Ryhmittele Plasma-sovelmia",
        "Description[fr]": "Regrouper les composants graphiques de Plasma ensemble",
        "Description[ia]": "Gruppa Widgets de Plasma insimul",
        "Description[id]": "Kelompokkan widget Plasma bersama",
        "Description[it]": "Raggruppa gli oggetti di Plasma",
        "Description[ja]": "Plasma ウィジェット同士をグループ化します",
        "Description[ko]": "Plasma 위젯을 하나로 묶기",
        "Description[lt]": "Kartu sugrupuoti Plasma valdiklius",
        "Description[nl]": "Plasma-widgets tezamen groeperen",
        "Description[nn]": "Grupper Plasma-element saman",
        "Description[pl]": "Zgrupuj elementy interfejsu Plazmy razem",
        "Description[pt]": "Agrupar elementos do Plasma em conjunto",
        "Description[pt_BR]": "Agrupar os widgets do Plasma",
        "Description[ro]": "Grupează împreună controale grafice Plasma",
        "Description[ru]": "Объединяет виджеты в группу",
        "Description[sk]": "Zoskupenie Plasma widgetov",
        "Description[sl]": "Grupiraj Plasma gradnike skupaj",
        "Description[sv]": "Gruppera grafiska plasmakomponenter",
        "Description[tr]": "Plasma araç takımlarını grupla",
        "Description[uk]": "Групувати віджети Плазми",
        "Description[vi]": "Nhóm các phụ kiện Plasma lại với nhau",
        "Description[x-test]": "xxGroup Plasma widgets togetherxx",
        "Description[zh_CN]": "将多个 Plasma 挂件合并为一组",
        "Description[zh_TW]": "組合數個 Plasma 元件",
        "EnabledByDefault": true,
        "Icon": "object-group",
        "Id": "org.kde.plasma.private.grouping",
        "License": "GPL-2.0+",
        "Name": "Grouping Plasmoid",
        "Name[ar]": "تجميع البلازمويد",
        "Name[az]": "Plasmoid qruplaşması",
        "Name[bg]": "Групиране на приставки",
        "Name[ca@valencia]": "Plasmoide d'agrupació",
        "Name[ca]": "Plasmoide d'agrupació",
        "Name[cs]": "Seskupovací Plasmoid",
        "Name[de]": "Gruppierung von Miniprogrammen",
        "Name[en_GB]": "Grouping Plasmoid",
        "Name[es]": "Plasmoide de agrupación",
        "Name[eu]": "Taldekatzeko plasmoidea",
        "Name[fi]": "Ryhmittelysovelma",
        "Name[fr]": "Regroupement de composants graphiques",
        "Name[ia]": "Plasmoid de gruppar",
        "Name[id]": "Pengelompok Plasmoid",
        "Name[is]": "Hópunar-plasmíð",
        "Name[it]": "Plasmoide di raggruppamento",
        "Name[ja]": "Plasmoid のグループ化",
        "Name[ko]": "그룹 Plasmoid",
        "Name[lt]": "Plasma įskiepių grupavimas",
        "Name[nl]": "Plasmoid-groepering",
        "Name[nn]": "Grupperings­element",
        "Name[pl]": "Plazmoid grupujący",
        "Name[pt]": "Plasmóide de Agrupamento",
        "Name[pt_BR]": "Plasmoide agrupado",
        "Name[ro]": "Plasmoid de grupare",
        "Name[ru]": "Группирующий виджет",
        "Name[sk]": "Zoskupenie plasmoidov",
        "Name[sl]": "Grouping Plasmoid",
        "Name[sv]": "Grupperingsplasmoid",
        "Name[tr]": "Gruplayan Plasmoid",
        "Name[uk]": "Плазмоїд групування",
        "Name[vi]": "Plasmoid nhóm",
        "Name[x-test]": "xxGrouping Plasmoidxx",
        "Name[zh_CN]": "Plasma 小程序分组",
        "ServiceTypes": [
            "Plasma/Applet",
            "Plasma/Containment"
        ],
        "Version": "1.0",
        "Website": "https://kde.org/plasma-desktop/"
    },
    "NoDisplay": true,
    "X-Plasma-API": "declarativeappletscript",
    "X-Plasma-ContainmentType": "Panel",
    "X-Plasma-MainScript": "ui/main.qml"
}
