{
    "KPlugin": {
        "Description": "Calendar plugin for displaying dates from the alternate calendar system",
        "Description[ar]": "ملحق تقويم يعرض التاريخ في نظام تقوم بديل",
        "Description[az]": "Alternativ təqvim sistemindən tarixləri göstərmək üçün təqvim qoşması",
        "Description[bg]": "Приставка на календара за показване на дати от алтернативни календарни системи",
        "Description[ca@valencia]": "Connector de calendari per a mostrar dates del sistema alternatiu de calendari",
        "Description[ca]": "Connector de calendari per a mostrar dates del sistema alternatiu de calendari",
        "Description[en_GB]": "Calendar plugin for displaying dates from the alternate calendar system",
        "Description[es]": "Complemento del calendario para mostrar fechas del sistema de calendario alternativo",
        "Description[eu]": "Ordezko egutegi sistemako datak azaltzeko egutegiko plugina",
        "Description[fi]": "Kalenteriliitännäinen päivyrin näyttämiseksi vaihtoehtoisella kalenterijärjestelmällä",
        "Description[fr]": "Module externe d'agenda pour l'affichage de dates à partir d'un système alternatif d'agenda",
        "Description[ia]": "Plugin de calendario per monstrar datas ex le systema alternate de calendario",
        "Description[id]": "Plugin kalender untuk menampilkan tanggal dari sistem kalender alternatif",
        "Description[it]": "Estensione del calendario per la visualizzazione delle date dal sistema di calendario alternativo",
        "Description[ja]": "代替カレンダーからの日付を表示するカレンダープラグインです",
        "Description[ko]": "대체 달력의 날짜를 표시하는 달력 플러그인",
        "Description[nl]": "Plug-in voor agenda voor tonen van afspraken uit het alternatieve agendasysteem",
        "Description[nn]": "Kalendertillegg for vising av datoar i alternative kalendersystem",
        "Description[pl]": "Wtyczka kalendarza do wyświetlania dat z zastępczego kalendarza",
        "Description[pt]": "'Plugin' de calendário para mostrar as datas de um sistema de calendário alternativo",
        "Description[pt_BR]": "Plugin de calendário para mostrar eventos de sistema de calendários alternativo",
        "Description[ro]": "Extensie de calendar pentru afișarea datelor din sisteme calendaristice alternative",
        "Description[ru]": "Модуль календаря для отображения альтернативных календарных систем",
        "Description[sl]": "Koledarski vtičnik za prikaz datumov alternativnih koledarskih sistemov",
        "Description[sv]": "Kalenderinsticksprogram för att visa datum från det alternativa kalendersystemet",
        "Description[tr]": "Alternatif takvim sisteminden tarihleri görüntülemek için takvim eklentisi",
        "Description[uk]": "Додаток календаря для показу дат із альтернативної календарної системи",
        "Description[vi]": "Phần cài cắm lịch để hiển thị ngày ở một hệ lịch khác",
        "Description[x-test]": "xxCalendar plugin for displaying dates from the alternate calendar systemxx",
        "Description[zh_CN]": "用于显示备选日历系统日期的日历插件",
        "Icon": "office-calendar",
        "Name": "Alternate Calendar",
        "Name[ar]": "التقويم البديل",
        "Name[az]": "Alternativ təqvim",
        "Name[bg]": "Алтернативен календар",
        "Name[ca@valencia]": "Calendari alternatiu",
        "Name[ca]": "Calendari alternatiu",
        "Name[en_GB]": "Alternate Calendar",
        "Name[es]": "Calendario alternativo",
        "Name[eu]": "Ordezko egutegia",
        "Name[fi]": "Vaihtoehtoinen kalenteri",
        "Name[fr]": "Agenda alternatif",
        "Name[ia]": "Calendario alterne",
        "Name[id]": "Alternate Calendar",
        "Name[is]": "Annað dagatal",
        "Name[it]": "Calendario alternativo",
        "Name[ja]": "代替カレンダー",
        "Name[ko]": "대체 달력",
        "Name[nl]": "Alternatieve agenda",
        "Name[nn]": "Alternativ kalender",
        "Name[pl]": "Zastępczy kalendarz",
        "Name[pt]": "Calendário Alternativo",
        "Name[pt_BR]": "Calendário alternativo",
        "Name[ro]": "Calendar alternativ",
        "Name[ru]": "Альтернативные календарные системы",
        "Name[sl]": "Alternativni koledar",
        "Name[sv]": "Alternativ kalender",
        "Name[tr]": "Alternatif Takvim",
        "Name[uk]": "Альтернативний календар",
        "Name[vi]": "Lịch khác",
        "Name[x-test]": "xxAlternate Calendarxx",
        "Name[zh_CN]": "备选日历",
        "Name[zh_TW]": "替代曆法"
    },
    "X-KDE-PlasmaCalendar-ConfigUi": "alternatecalendar/AlternateCalendarConfig.qml"
}
