{
    "KPlugin": {
        "Icon": "",
        "Name": "Astronomy (NASA)",
        "Name[ar]": "الفلك (ناسا)",
        "Name[az]": "Astronomiya (NASA)",
        "Name[bg]": "Астрономия (NASA)",
        "Name[ca@valencia]": "Astronomia (NASA)",
        "Name[ca]": "Astronomia (NASA)",
        "Name[cs]": "Astronomie (NASA)",
        "Name[da]": "Astronomi (NASA)",
        "Name[de]": "Astronomie (NASA)",
        "Name[en_GB]": "Astronomy (NASA)",
        "Name[es]": "Astronomía (NASA)",
        "Name[et]": "Astronomy (NASA)",
        "Name[eu]": "Astronomia (NASA)",
        "Name[fi]": "Tähtitiede (Nasa)",
        "Name[fr]": "Astronomie (NASA)",
        "Name[gl]": "Astronomía (NASA)",
        "Name[hu]": "Csillagászat (NASA)",
        "Name[ia]": "Astronomy (NASA)",
        "Name[id]": "Astronomy (NASA)",
        "Name[is]": "Stjörnufræði (NASA)",
        "Name[it]": "Astronomia (NASA)",
        "Name[ja]": "天文学 (NASA)",
        "Name[ko]": "천문(NASA)",
        "Name[lt]": "Astronomija (NASA)",
        "Name[nl]": "Astronomie (NASA)",
        "Name[nn]": "Astronomi (NASA)",
        "Name[pl]": "Astronomia (NASA)",
        "Name[pt]": "Astronomy (NASA)",
        "Name[pt_BR]": "Astronomia (NASA)",
        "Name[ro]": "Astronomie (NASA)",
        "Name[ru]": "Астрономия (NASA)",
        "Name[sk]": "Astronómia (NASA)",
        "Name[sl]": "Astronomy (NASA)",
        "Name[sv]": "Astronomi (NASA)",
        "Name[tr]": "Astronomi (NASA)",
        "Name[uk]": "Астрономія (NASA)",
        "Name[vi]": "Thiên văn học (NASA)",
        "Name[x-test]": "xxAstronomy (NASA)xx",
        "Name[zh_CN]": "天文 (NASA)",
        "Name[zh_TW]": "Astronomy (NASA)"
    },
    "X-KDE-PlasmaPoTDProvider-Identifier": "apod"
}
