{
    "KPlugin": {
        "Icon": "",
        "Name": "Wikimedia Commons",
        "Name[ar]": "ويكيميديا كومنز ",
        "Name[az]": "Wikimedia Commons",
        "Name[bg]": "Wikimedia Commons",
        "Name[ca@valencia]": "Wikimedia Commons",
        "Name[ca]": "Wikimedia Commons",
        "Name[cs]": "Wikimedia Commons",
        "Name[da]": "Wikimedia Commons",
        "Name[de]": "Wikimedia Commons",
        "Name[en_GB]": "Wikimedia Commons",
        "Name[es]": "Wikimedia Commons",
        "Name[et]": "Wikimedia Commons",
        "Name[eu]": "Wikimedia Commons",
        "Name[fi]": "Wikimedia Commons",
        "Name[fr]": "Wikimedia Commons",
        "Name[gl]": "Wikimedia Commons",
        "Name[hu]": "Wikimedia Commons",
        "Name[ia]": "Wikimedia Commons",
        "Name[id]": "Wikimedia Commons",
        "Name[is]": "Wikimedia Commons",
        "Name[it]": "Wikimedia Commons",
        "Name[ja]": "ウィキメディア・コモンズ",
        "Name[ko]": "위키미디어 공용",
        "Name[lt]": "Wikimedia Commons",
        "Name[nl]": "Wikimedia Commons",
        "Name[nn]": "Wikimedia Commons",
        "Name[pl]": "Wikimedia Commons",
        "Name[pt]": "Wikimedia Commons",
        "Name[pt_BR]": "Wikimedia Commons",
        "Name[ro]": "Wikimedia Commons",
        "Name[ru]": "Wikimedia Commons",
        "Name[sk]": "Wikimedia Commons",
        "Name[sl]": "Wikimedia Commons",
        "Name[sv]": "Wikimedia Commons",
        "Name[tr]": "Wikimedia Commons",
        "Name[uk]": "ВікіСховище",
        "Name[vi]": "Wikimedia Commons",
        "Name[x-test]": "xxWikimedia Commonsxx",
        "Name[zh_CN]": "维基共享资源",
        "Name[zh_TW]": "Wikimedia Commons"
    },
    "X-KDE-PlasmaPoTDProvider-Identifier": "wcpotd"
}
