{
    "KPlugin": {
        "Authors": [
            {
                "Email": "rshah0385@kireihana.com",
                "Name": "Reza Fatahilah Shah",
                "Name[ar]": "Reza Fatahilah Shah",
                "Name[az]": "Reza Fatahilah Shah",
                "Name[bg]": "Reza Fatahilah Shah",
                "Name[ca@valencia]": "Reza Fatahilah Shah",
                "Name[ca]": "Reza Fatahilah Shah",
                "Name[cs]": "Reza Fatahilah Shah",
                "Name[de]": "Reza Fatahilah Shah",
                "Name[en_GB]": "Reza Fatahilah Shah",
                "Name[es]": "Reza Fatahilah Shah",
                "Name[eu]": "Reza Fatahilah Shah",
                "Name[fi]": "Reza Fatahilah Shah",
                "Name[fr]": "Reza Fatahilah Shah",
                "Name[ia]": "Reza Fatahilah Shah",
                "Name[id]": "Reza Fatahilah Shah",
                "Name[is]": "Reza Fatahilah Shah",
                "Name[it]": "Reza Fatahilah Shah",
                "Name[ja]": "Reza Fatahilah Shah",
                "Name[ka]": "Reza Fatahilah Shah",
                "Name[ko]": "Reza Fatahilah Shah",
                "Name[lt]": "Reza Fatahilah Shah",
                "Name[nl]": "Reza Fatahilah Shah",
                "Name[nn]": "Reza Fatahilah Shah",
                "Name[pl]": "Reza Fatahilah Shah",
                "Name[pt]": "Reza Fatahilah Shah",
                "Name[pt_BR]": "Reza Fatahilah Shah",
                "Name[ro]": "Reza Fatahilah Shah",
                "Name[ru]": "Reza Fatahilah Shah",
                "Name[sk]": "Reza Fatahilah Shah",
                "Name[sl]": "Reza Fatahilah Shah",
                "Name[sv]": "Reza Fatahilah Shah",
                "Name[tr]": "Reza Fatahilah Şah",
                "Name[uk]": "Reza Fatahilah Shah",
                "Name[vi]": "Reza Fatahilah Shah",
                "Name[x-test]": "xxReza Fatahilah Shahxx",
                "Name[zh_CN]": "Reza Fatahilah Shah",
                "Name[zh_TW]": "Reza Fatahilah Shah"
            }
        ],
        "Category": "Fun and Games",
        "Description": "View comic strips from the Internet",
        "Description[ar]": "اعرض شرائط هزلية من الإنترنت",
        "Description[az]": "Komikslərə internetdən baxmaq",
        "Description[bg]": "Преглед на комикси от интернет",
        "Description[ca@valencia]": "Mostra una tira còmica des d'Internet",
        "Description[ca]": "Mostra una tira còmica des d'Internet",
        "Description[cs]": "Ukáže komiksový proužek z internetu",
        "Description[de]": "Comics aus dem Internet anzeigen",
        "Description[en_GB]": "View comic strips from the Internet",
        "Description[es]": "Ver tiras de cómics de Internet",
        "Description[eu]": "Interneteko komiki zerrendak ikusi",
        "Description[fi]": "Näytä sarjakuvastrippejä internetistä",
        "Description[fr]": "Afficher des bandes dessinées à partir d'Internet",
        "Description[ia]": "Vide bandas de comic ex le internet",
        "Description[id]": "Lihat komik strip dari internet",
        "Description[is]": "Skoða myndasögur af netinu",
        "Description[it]": "Vedi una striscia di fumetti da Internet.",
        "Description[ja]": "インターネット上のコミック・ストリップを表示します",
        "Description[ko]": "인터넷 만화 보기",
        "Description[lt]": "Žiūrėti komiksų piešinių seriją iš interneto",
        "Description[nl]": "Toont stripboeken van het internet",
        "Description[nn]": "Vis teikneseriar frå Internett",
        "Description[pl]": "Przegląda komiksy z Internetu",
        "Description[pt]": "Ver as bandas desenhadas da Internet",
        "Description[pt_BR]": "Exibe uma tirinha da Internet",
        "Description[ro]": "Arată benzi desenate din Internet",
        "Description[ru]": "Просмотр комиксов из Интернета",
        "Description[sk]": "Zobrazuje komiksové pásy z internetu",
        "Description[sl]": "Oglej si komične stripe iz interneta",
        "Description[sv]": "Visa tecknade serier från Internet",
        "Description[tr]": "İnternetten çizgi roman şeritlerini görüntüle",
        "Description[uk]": "Показує стрічку з жартами з Інтернету",
        "Description[vi]": "Xem các truyện tranh trên Liên Mạng",
        "Description[x-test]": "xxView comic strips from the Internetxx",
        "Description[zh_CN]": "阅读来自互联网的连环画",
        "Description[zh_TW]": "看網路上的連環漫畫",
        "EnabledByDefault": true,
        "Icon": "face-smile-big",
        "Id": "org.kde.plasma.comic",
        "License": "GPL-2.0+",
        "Name": "Comic Strip",
        "Name[ar]": "شريط هزلي",
        "Name[az]": "Komikslər",
        "Name[bg]": "Лента с комикси",
        "Name[ca@valencia]": "Tira còmica",
        "Name[ca]": "Tira còmica",
        "Name[cs]": "Komiksový proužek",
        "Name[de]": "Comic",
        "Name[en_GB]": "Comic Strip",
        "Name[es]": "Tira de cómic",
        "Name[eu]": "Komiki zerrenda",
        "Name[fi]": "Sarjakuvastrippi",
        "Name[fr]": "Bandes dessinées",
        "Name[ia]": "Banda de comic",
        "Name[id]": "Komik Strip",
        "Name[is]": "Myndasögur",
        "Name[it]": "Striscia di fumetti",
        "Name[ja]": "コミック・ストリップ",
        "Name[ko]": "만화 조각",
        "Name[lt]": "Komiksų piešinių serija",
        "Name[nl]": "Stripboek",
        "Name[nn]": "Teikne­serie",
        "Name[pl]": "Komiksy",
        "Name[pt]": "Banda Desenhada",
        "Name[pt_BR]": "Tirinha",
        "Name[ro]": "Benzi desenate",
        "Name[ru]": "Комиксы",
        "Name[sk]": "Komiksový pás",
        "Name[sl]": "Comic Strip",
        "Name[sv]": "Tecknad serie",
        "Name[tr]": "Çizgi Roman Şeridi",
        "Name[uk]": "Комічна стрічка",
        "Name[vi]": "Truyện tranh",
        "Name[x-test]": "xxComic Stripxx",
        "Name[zh_CN]": "连环画",
        "Name[zh_TW]": "連環漫畫",
        "ServiceTypes": [
            "Plasma/Applet"
        ],
        "Version": "1.0",
        "Website": "https://kde.org/plasma-desktop/"
    },
    "X-Plasma-API": "declarativeappletscript",
    "X-Plasma-MainScript": "ui/main.qml",
    "X-Plasma-StandAloneApp": true
}
